…
    ## $ abstain       <int> 4, 8, 1, 10, 0, 2, 2, 0, 0, 3, 2, 5, 6, 7, 2, 9, 11, 1,…
    ## $ yes           <int> 29, 9, 28, 12, 25, 38, 45, 46, 41, 21, 10, 7, 10, 7, 27…
    ## $ no            <int> 18, 34, 22, 27, 18, 1, 0, 2, 0, 22, 31, 30, 26, 34, 19,…
    ## $ importantvote <lgl> FALSE, FALSE, FALSE, FALSE, FALSE, FALSE, FALSE, FALSE,…
    ## $ date          <date> 1946-01-01, 1946-01-02, 1946-01-04, 1946-01-04, 1946-0…
    ## $ unres         <chr> "R/1/66", "R/1/79", "R/1/98", "R/1/107", "R/1/295", "R/…
    ## $ descr         <chr> "TO ADOPT A CUBAN AMENDMENT TO THE UK PROPOSAL REFERRIN…
    ## $ me            <lgl> FALSE, FALSE, FALSE, FALSE, FALSE, FALSE, FALSE, FALSE,…
    ## $ nu            <lgl> FALSE, FALSE, FALSE, FALSE, FALSE, FALSE, FALSE, FALSE,…
    ## $ di            <lgl> FALSE, FALSE, FALSE, FALSE, FALSE, FALSE, FALSE, FALSE,…
    ## $ hr            <lgl> FALSE, FALSE, FALSE, TRUE, FALSE, FALSE, FALSE, FALSE, …
    ## $ co            <lgl> FALSE, FALSE, FALSE, FALSE, FALSE, FALSE, FALSE, FALSE,…
    ## $ ec            <lgl> FALSE, FALSE, FALSE, FALSE, FALSE, TRUE, FALSE, FALSE, …

    ## # A tibble: 60 x 3
    ##    countryname     year     n
    ##    <chr>          <int> <int>
    ##  1 Czech Republic  1946    43
    ##  2 Czech Republic  1947    38
    ##  3 Czech Republic  1948    64
    ##  4 Czech Republic  1949   104
    ##  5 Czech Republic  1950    50
    ##  6 Czech Republic  1951     7
    ##  7 Czech Republic  1952    70
    ##  8 Czech Republic  1953    26
    ##  9 Czech Republic  1954    31
    ## 10 Czech Republic  1955    37
    ## # … with 50 more rows
…
  - Let’s finally check the data for the Yemens (\#3) and Germanys
    (\#4).

<!-- end list -->

``` r
# Yemen
un_voting %>%
  filter(countryname == "Yemen") %>%
  count(countryname, year)
```

    ## # A tibble: 28 x 3
    ##    countryname  year     n
    ##    <chr>       <int> <int>
    ##  1 Yemen        1991    74
    ##  2 Yemen        1992    75
    ##  3 Yemen        1993    65
    ##  4 Yemen        1994    68
    ##  5 Yemen        1995    79
    ##  6 Yemen        1996    76
    ##  7 Yemen        1997    70
    ##  8 Yemen        1998    62
    ##  9 Yemen        1999    68
    ## 10 Yemen        2000    67
    ## # … with 18 more rows

``` r
# Germany
un_voting %>%
  filter(countryname == "Germany") %>%
  count(countryname, year)
```

    ## # A tibble: 29 x 3
    ##    countryname  year     n
    ##    <chr>       <int> <int>
    ##  1 Germany      1990    86
    ##  2 Germany      1991    74
    ##  3 Germany      1992    75
    ##  4 Germany      1993    65
    ##  5 Germany      1994    68
    ##  6 Germany      1995    79
    ##  7 Germany      1996    76
    ##  8 Germany      1997    70
    ##  9 Germany      1998    62
    ## 10 Germany      1999    68
    ## # … with 19 more rows
…
