…
# Print results
if (exists("q1")) q1
```

    ## # A tibble: 373,870 x 23
    ##     rcid  vote iso   countryname  year importantvote palestine nuclear_weapons
    ##    <int> <int> <chr> <chr>       <int> <lgl>         <lgl>     <lgl>          
    ##  1  3662     1 usa   United Sta…  1992 FALSE         FALSE     FALSE          
    ##  2  3662     1 can   Canada       1992 FALSE         FALSE     FALSE          
    ##  3  3662     1 bhs   Bahamas      1992 FALSE         FALSE     FALSE          
    ##  4  3662     1 cub   Cuba         1992 FALSE         FALSE     FALSE          
    ##  5  3662     8 hti   Haiti        1992 FALSE         FALSE     FALSE          
    ##  6  3662     8 dom   Dominican …  1992 FALSE         FALSE     FALSE          
    ##  7  3662     1 jam   Jamaica      1992 FALSE         FALSE     FALSE          
    ##  8  3662     1 tto   Trinidad a…  1992 FALSE         FALSE     FALSE          
    ##  9  3662     1 brb   Barbados     1992 FALSE         FALSE     FALSE          
    ## 10  3662     8 dma   Dominica     1992 FALSE         FALSE     FALSE          
    ## # … with 373,860 more rows, and 15 more variables: disarmament <lgl>,
    ## #   human_rights <lgl>, colonialism <lgl>, economic_dev <lgl>, pop_est <dbl>,
    ## #   pop_rank <int>, gdp_md_est <dbl>, economy <chr>, income_grp <chr>,
    ## #   continent <chr>, subregion <chr>, region_wb <chr>, geometry <list>,
    ## #   un_member_date <dbl>, electoral_democracy <chr>
…
Note: Exclude the column listing the target nation’s votes.

``` r
q3 <-
  alignment(target_nation("usa"), vote_usa, "usa") %>%
  select(-vote_usa)

# Print results
if (exists("q3")) q3
```

    ## # A tibble: 332,490 x 24
    ##     rcid  vote iso   countryname  year importantvote palestine nuclear_weapons
    ##    <int> <int> <chr> <chr>       <int> <lgl>         <lgl>     <lgl>          
    ##  1  3662     1 can   Canada       1992 FALSE         FALSE     FALSE          
    ##  2  3662     1 bhs   Bahamas      1992 FALSE         FALSE     FALSE          
    ##  3  3662     1 cub   Cuba         1992 FALSE         FALSE     FALSE          
    ##  4  3662     1 jam   Jamaica      1992 FALSE         FALSE     FALSE          
    ##  5  3662     1 tto   Trinidad a…  1992 FALSE         FALSE     FALSE          
    ##  6  3662     1 brb   Barbados     1992 FALSE         FALSE     FALSE          
    ##  7  3662     1 grd   Grenada      1992 FALSE         FALSE     FALSE          
    ##  8  3662     1 vct   Saint Vinc…  1992 FALSE         FALSE     FALSE          
    ##  9  3662     1 kna   Saint Kitt…  1992 FALSE         FALSE     FALSE          
    ## 10  3662     1 mex   Mexico       1992 FALSE         FALSE     FALSE          
    ## # … with 332,480 more rows, and 16 more variables: disarmament <lgl>,
    ## #   human_rights <lgl>, colonialism <lgl>, economic_dev <lgl>, pop_est <dbl>,
    ## #   pop_rank <int>, gdp_md_est <dbl>, economy <chr>, income_grp <chr>,
    ## #   continent <chr>, subregion <chr>, region_wb <chr>, geometry <list>,
    ## #   un_member_date <dbl>, electoral_democracy <chr>, difference <fct>

**q4** Perform the same task as q3 for China. Store the answers in q4.

``` r
q4 <-
  alignment(target_nation("chn"), vote_chn, "chn") %>%
  select(-vote_chn)

# Print results
if (exists("q4")) q4
```

    ## # A tibble: 328,135 x 24
    ##     rcid  vote iso   countryname  year importantvote palestine nuclear_weapons
    ##    <int> <int> <chr> <chr>       <int> <lgl>         <lgl>     <lgl>          
    ##  1  3662     1 usa   United Sta…  1992 FALSE         FALSE     FALSE          
    ##  2  3662     1 can   Canada       1992 FALSE         FALSE     FALSE          
    ##  3  3662     1 bhs   Bahamas      1992 FALSE         FALSE     FALSE          
    ##  4  3662     1 cub   Cuba         1992 FALSE         FALSE     FALSE          
    ##  5  3662     1 jam   Jamaica      1992 FALSE         FALSE     FALSE          
    ##  6  3662     1 tto   Trinidad a…  1992 FALSE         FALSE     FALSE          
    ##  7  3662     1 brb   Barbados     1992 FALSE         FALSE     FALSE          
    ##  8  3662     1 grd   Grenada      1992 FALSE         FALSE     FALSE          
    ##  9  3662     1 vct   Saint Vinc…  1992 FALSE         FALSE     FALSE          
    ## 10  3662     1 kna   Saint Kitt…  1992 FALSE         FALSE     FALSE          
    ## # … with 328,125 more rows, and 16 more variables: disarmament <lgl>,
    ## #   human_rights <lgl>, colonialism <lgl>, economic_dev <lgl>, pop_est <dbl>,
    ## #   pop_rank <int>, gdp_md_est <dbl>, economy <chr>, income_grp <chr>,
    ## #   continent <chr>, subregion <chr>, region_wb <chr>, geometry <list>,
    ## #   un_member_date <dbl>, electoral_democracy <chr>, difference <fct>
…
